[
  {
    "v_site_nm": "남원공장",
    "v_site_id": 4001001804,
    "v_address": "전라북도",
    "v_rest_address": "남원시 인월면 천왕봉로 135-53 영우냉동식품",
    "gps_lat": 35.4560733,
    "gps_lng": 127.612804
  },
  {
    "v_site_nm": "논산공장",
    "v_site_id": 3001001807,
    "v_address": "충청남도",
    "v_rest_address": "논산시 연무읍 죽본2길 16",
    "gps_lat": 36.1369863,
    "gps_lng": 127.114803
  },
  {
    "v_site_nm": "블러썸파크",
    "v_site_id": 1001001806,
    "v_address": "경기도",
    "v_rest_address": "수원시 영통구 광교로 42번길 55 CJ Blossom Park 바이오동 B3F",
    "gps_lat": 37.2868743,
    "gps_lng": 127.042121
  },
  {
    "v_site_nm": "영등포공장",
    "v_site_id": 1001001805,
    "v_address": "서울",
    "v_rest_address": "서울특별시 구로구 경인로 518 (구로동)",
    "gps_lat": 37.5002374,
    "gps_lng": 126.876908
  },
  {
    "v_site_nm": "양산공장",
    "v_site_id": 5001001808,
    "v_address": "경상남도",
    "v_rest_address": "양산시 어곡공단2길 66 (어곡동)",
    "gps_lat": 35.3722444,
    "gps_lng": 129.016481
  },
  {
    "v_site_nm": "진천두부공장",
    "v_site_id": 3001001809,
    "v_address": "충청북도",
    "v_rest_address": "진천군 광혜원면 광혜원산단2길 112",
    "gps_lat": 36.988413,
    "gps_lng": 127.437183
  },
  {
    "v_site_nm": "진천육가공공장",
    "v_site_id": 3001001810,
    "v_address": "충청북도",
    "v_rest_address": "진천군 광혜원면 광혜원산단2길 112",
    "gps_lat": 36.988413,
    "gps_lng": 127.437183
  },
  {
    "v_site_nm": "부산공장",
    "v_site_id": 5001001812,
    "v_address": "부산",
    "v_rest_address": "부산광역시 사하구 다대로 210 CJ제일제당㈜ 부산공장 (장림동)",
    "gps_lat": 35.0841624,
    "gps_lng": 128.974588
  },
  {
    "v_site_nm": "성남씨푸드",
    "v_site_id": 1001001811,
    "v_address": "경기도",
    "v_rest_address": "경기도 성남시 중원구 둔촌대로388번길 32",
    "gps_lat": 37.4304267,
    "gps_lng": 127.159602
  },
  {
    "v_site_nm": "인천냉동",
    "v_site_id": 1001001813,
    "v_address": "인천",
    "v_rest_address": "중구 신흥동 서해대로 168",
    "gps_lat": 37.4427621,
    "gps_lng": 126.622492
  },
  {
    "v_site_nm": "안산공장",
    "v_site_id": 2001001801,
    "v_rest_address": "상록구 용담로 141",
    "gps_lat": 37.2919698,
    "gps_lng": 126.889568
  },
  {
    "v_site_nm": "도레이케미칼",
    "v_site_id": 5005001814,
    "v_rest_address": "구미시 구미대로 102 도레이케미칼 구미1공장",
    "gps_lat": 36.0971718,
    "gps_lng": 128.368776
  },
  {
    "v_site_nm": "도레이첨단소재",
    "v_site_id": 5005001815,
    "v_rest_address": "구미시 3공단2로 300 도레이첨단소재주식회사 구미1공장",
    "gps_lat": 36.1075353,
    "gps_lng": 128.407015
  },
  {
    "v_site_nm": "한국씨엔티",
    "v_site_id": 5005001816,
    "v_rest_address": "포항시 남구 괴동로 93",
    "gps_lat": 35.9878079,
    "gps_lng": 129.369314
  },
  {
    "v_site_nm": "인천1공장",
    "v_site_id": 1001001817,
    "v_address": "경기도",
    "v_rest_address": "중구 아암대로 20 (신흥동3가)",
    "gps_lat": 37.4594833,
    "gps_lng": 126.636961
  },
  {
    "v_site_nm": "인천2공장",
    "v_site_id": 1001001818,
    "v_address": "경기도",
    "v_rest_address": "인천광역시 중구 서해대로140번길 49 (신흥동3가)",
    "gps_lat": 37.4398352,
    "gps_lng": 126.624631
  },
  {
    "v_site_nm": "남창원농협",
    "v_site_id": 5002001819,
    "v_address": "경상도",
    "v_rest_address": "경상남도 창원시 성산구 가음로 100",
    "gps_lat": 35.2040188,
    "gps_lng": 128.70316
  },
  {
    "v_site_nm": "한국기계연구원",
    "v_site_id": 3002001801,
    "v_address": "대전광역시",
    "v_rest_address": "대전광역시 유성구 가정북로 156",
    "gps_lat": 36.396583,
    "gps_lng": 127.356485
  }
]

